[
  {
    "metabase": "Deaths",
    "translation": "Fallecidos"
  },
  {
    "metabase": "PCR",
    "translation": "Examenes PCR"
  },
  {
    "metabase": "Recovered",
    "translation": "Recuperados"
  },
  {
    "metabase": "UCI",
    "translation": "Pacientes en UCI"
  },
  {
    "metabase": "Confirmed",
    "translation": "Confirmados"
  }
]
